0.0.0.0 an.yandex.ru
0.0.0.0 an.yandex.com
0.0.0.0 an.yandex.net
0.0.0.0 bs.yandex.ru
0.0.0.0 bs.yandex.com
0.0.0.0 bs.yandex.net
0.0.0.0 mc.yandex.ru
0.0.0.0 mc.yandex.com
0.0.0.0 mc.yandex.net

0.0.0.0 an-meta.yandex.ru
0.0.0.0 an-meta.yandex.com
0.0.0.0 an-meta.yandex.net
0.0.0.0 bs-meta.yandex.ru
0.0.0.0 bs-meta.yandex.com
0.0.0.0 bs-meta.yandex.net
0.0.0.0 mc-meta.yandex.ru
0.0.0.0 mc-meta.yandex.com
0.0.0.0 mc-meta.yandex.net